^C:\USERS\PASCA\SOURCE\REPOS\ARTIKELVERWALTUNG\ARTIKELVERWALTUNG\DEBUG\QUELLE.OBJ
C:\USERS\PASCA\SOURCE\REPOS\ARTIKELVERWALTUNG\DEBUG\ARTIKELVERWALTUNG.EXE
C:\USERS\PASCA\SOURCE\REPOS\ARTIKELVERWALTUNG\DEBUG\ARTIKELVERWALTUNG.ILK
C:\USERS\PASCA\SOURCE\REPOS\ARTIKELVERWALTUNG\DEBUG\ARTIKELVERWALTUNG.PDB
